{
"type": "FeatureCollection",
"name": "syria_idpsites_2016earlyjan_hiu_usdos-xlsx",
"crs": { "type": "name", "properties": { "name": "urn:ogc:def:crs:OGC:1.3:CRS84" } },
"features": [
{ "type": "Feature", "properties": { "Name": "Burayqah IDP Camp", "description": "Country: Syria<br>ADM1: Al Qunaytirah<br>ADM2: Al Qunaytirah<br>ADM3: Al Qunaytirah<br>ADM4: Breiqa<br>Latitude: 33.039<br>Longitude: 35.86<br>Name: Burayqah IDP Camp<br>PCODE: SY140000C6269<br>fips: SY<br>iso_alpha2: SY<br>iso_alpha3: SYR<br>stanag: SYR<br>tld: .sy<br>GENC2: SY", "Country": "Syria", "ADM1": "Al Qunaytirah", "ADM2": "Al Qunaytirah", "ADM3": "Al Qunaytirah", "ADM4": "Breiqa", "Latitude": "33.039", "Longitude": "35.86", "PCODE": "SY140000C6269", "fips": "SY", "iso_alpha2": "SY", "iso_alpha3": "SYR", "stanag": "SYR", "tld": ".sy", "GENC2": "SY" }, "geometry": { "type": "Point", "coordinates": [ 35.86, 33.039 ] } },
{ "type": "Feature", "properties": { "Name": "Kharaba IDP Camp", "description": "Country: Syria<br>ADM1: As Suwayda'<br>ADM2: As Suwayda'<br>ADM3: As Suwayda'<br>ADM4: Kherba<br>Latitude: 32.583<br>Longitude: 36.439<br>Name: Kharaba IDP Camp<br>PCODE: SY130000C6150<br>fips: SY<br>iso_alpha2: SY<br>iso_alpha3: SYR<br>stanag: SYR<br>tld: .sy<br>GENC2: SY", "Country": "Syria", "ADM1": "As Suwayda'", "ADM2": "As Suwayda'", "ADM3": "As Suwayda'", "ADM4": "Kherba", "Latitude": "32.583", "Longitude": "36.439", "PCODE": "SY130000C6150", "fips": "SY", "iso_alpha2": "SY", "iso_alpha3": "SYR", "stanag": "SYR", "tld": ".sy", "GENC2": "SY" }, "geometry": { "type": "Point", "coordinates": [ 36.439, 32.583 ] } },
{ "type": "Feature", "properties": { "Name": "Kharaba Church East IDP Camp", "description": "Country: Syria<br>ADM1: As Suwayda'<br>ADM2: As Suwayda'<br>ADM3: As Suwayda'<br>ADM4: Kherba<br>Latitude: 32.588<br>Longitude: 36.447<br>Name: Kharaba Church East IDP Camp<br>PCODE: SY130000C6150<br>fips: SY<br>iso_alpha2: SY<br>iso_alpha3: SYR<br>stanag: SYR<br>tld: .sy<br>GENC2: SY", "Country": "Syria", "ADM1": "As Suwayda'", "ADM2": "As Suwayda'", "ADM3": "As Suwayda'", "ADM4": "Kherba", "Latitude": "32.588", "Longitude": "36.447", "PCODE": "SY130000C6150", "fips": "SY", "iso_alpha2": "SY", "iso_alpha3": "SYR", "stanag": "SYR", "tld": ".sy", "GENC2": "SY" }, "geometry": { "type": "Point", "coordinates": [ 36.447, 32.588 ] } },
{ "type": "Feature", "properties": { "Name": "Ruqban Border Crossing IDP Camp", "description": "Country: Syria<br>ADM1: Damascus Countryside<br>ADM2: Duma<br>ADM3: Sabe Byar<br>ADM4: Sabe Byar<br>Latitude: 33.311<br>Longitude: 38.674<br>Name: Ruqban Border Crossing IDP Camp<br>PCODE: SY030202C2345<br>fips: SY<br>iso_alpha2: SY<br>iso_alpha3: SYR<br>stanag: SYR<br>tld: .sy<br>GENC2: SY", "Country": "Syria", "ADM1": "Damascus Countryside", "ADM2": "Duma", "ADM3": "Sabe Byar", "ADM4": "Sabe Byar", "Latitude": "33.311", "Longitude": "38.674", "PCODE": "SY030202C2345", "fips": "SY", "iso_alpha2": "SY", "iso_alpha3": "SYR", "stanag": "SYR", "tld": ".sy", "GENC2": "SY" }, "geometry": { "type": "Point", "coordinates": [ 38.674, 33.311 ] } },
{ "type": "Feature", "properties": { "Name": "Khashm al Ghardush IDP Camp", "description": "Country: Syria<br>ADM1: Damascus Countryside<br>ADM2: Duma<br>ADM3: Sabe Byar<br>ADM4: Sabe Byar<br>Latitude: 32.857<br>Longitude: 37.82<br>Name: Khashm al Ghardush IDP Camp<br>PCODE: SY030202C2345<br>fips: SY<br>iso_alpha2: SY<br>iso_alpha3: SYR<br>stanag: SYR<br>tld: .sy<br>GENC2: SY", "Country": "Syria", "ADM1": "Damascus Countryside", "ADM2": "Duma", "ADM3": "Sabe Byar", "ADM4": "Sabe Byar", "Latitude": "32.857", "Longitude": "37.82", "PCODE": "SY030202C2345", "fips": "SY", "iso_alpha2": "SY", "iso_alpha3": "SYR", "stanag": "SYR", "tld": ".sy", "GENC2": "SY" }, "geometry": { "type": "Point", "coordinates": [ 37.82, 32.857 ] } },
{ "type": "Feature", "properties": { "Name": "Ash Shajarah IDP Camp 01", "description": "Country: Syria<br>ADM1: Dar'a<br>ADM2: Dar'a<br>ADM3: Ash-Shajara<br>ADM4: Ash-Shajara<br>Latitude: 32.775<br>Longitude: 35.886<br>Name: Ash Shajarah IDP Camp 01<br>PCODE: SY120003C6021<br>fips: SY<br>iso_alpha2: SY<br>iso_alpha3: SYR<br>stanag: SYR<br>tld: .sy<br>GENC2: SY", "Country": "Syria", "ADM1": "Dar'a", "ADM2": "Dar'a", "ADM3": "Ash-Shajara", "ADM4": "Ash-Shajara", "Latitude": "32.775", "Longitude": "35.886", "PCODE": "SY120003C6021", "fips": "SY", "iso_alpha2": "SY", "iso_alpha3": "SYR", "stanag": "SYR", "tld": ".sy", "GENC2": "SY" }, "geometry": { "type": "Point", "coordinates": [ 35.886, 32.775 ] } },
{ "type": "Feature", "properties": { "Name": "Tisiya IDP Camp", "description": "Country: Syria<br>ADM1: Dar'a<br>ADM2: Dar'a<br>ADM3: Busra Esh-Sham<br>ADM4: Tisiya<br>Latitude: 32.418<br>Longitude: 36.457<br>Name: Tisiya IDP Camp<br>PCODE: SY120001C6000<br>fips: SY<br>iso_alpha2: SY<br>iso_alpha3: SYR<br>stanag: SYR<br>tld: .sy<br>GENC2: SY", "Country": "Syria", "ADM1": "Dar'a", "ADM2": "Dar'a", "ADM3": "Busra Esh-Sham", "ADM4": "Tisiya", "Latitude": "32.418", "Longitude": "36.457", "PCODE": "SY120001C6000", "fips": "SY", "iso_alpha2": "SY", "iso_alpha3": "SYR", "stanag": "SYR", "tld": ".sy", "GENC2": "SY" }, "geometry": { "type": "Point", "coordinates": [ 36.457, 32.418 ] } },
{ "type": "Feature", "properties": { "Name": "Basselhaya IDP Camp", "description": "Country: Syria<br>ADM1: Halab<br>ADM2: Afrin<br>ADM3: Afrin<br>ADM4: Baselhaya<br>Latitude: 36.467<br>Longitude: 36.951<br>Name: Basselhaya IDP Camp<br>PCODE: SY020300C1371<br>fips: SY<br>iso_alpha2: SY<br>iso_alpha3: SYR<br>stanag: SYR<br>tld: .sy<br>GENC2: SY", "Country": "Syria", "ADM1": "Halab", "ADM2": "Afrin", "ADM3": "Afrin", "ADM4": "Baselhaya", "Latitude": "36.467", "Longitude": "36.951", "PCODE": "SY020300C1371", "fips": "SY", "iso_alpha2": "SY", "iso_alpha3": "SYR", "stanag": "SYR", "tld": ".sy", "GENC2": "SY" }, "geometry": { "type": "Point", "coordinates": [ 36.951, 36.467 ] } },
{ "type": "Feature", "properties": { "Name": "Dayr Ballut Atimah IDP Camp", "description": "Country: Syria<br>ADM1: Halab<br>ADM2: Afrin<br>ADM3: Jandairis<br>ADM4: Deir Ballut<br>Latitude: 36.323<br>Longitude: 36.662<br>Name: Dayr Ballut Atimah IDP Camp<br>PCODE: SY020302C1435<br>fips: SY<br>iso_alpha2: SY<br>iso_alpha3: SYR<br>stanag: SYR<br>tld: .sy<br>GENC2: SY", "Country": "Syria", "ADM1": "Halab", "ADM2": "Afrin", "ADM3": "Jandairis", "ADM4": "Deir Ballut", "Latitude": "36.323", "Longitude": "36.662", "PCODE": "SY020302C1435", "fips": "SY", "iso_alpha2": "SY", "iso_alpha3": "SYR", "stanag": "SYR", "tld": ".sy", "GENC2": "SY" }, "geometry": { "type": "Point", "coordinates": [ 36.662, 36.323 ] } },
{ "type": "Feature", "properties": { "Name": "Kobane Ayn al Arab IDP Camp", "description": "Country: Syria<br>ADM1: Halab<br>ADM2: Ain Al Arab<br>ADM3: Ain Al Arab<br>ADM4: Ain Al Arab<br>Latitude: 36.894<br>Longitude: 38.33<br>Name: Kobane Ayn al Arab IDP Camp<br>PCODE: SY020600C1946<br>fips: SY<br>iso_alpha2: SY<br>iso_alpha3: SYR<br>stanag: SYR<br>tld: .sy<br>GENC2: SY", "Country": "Syria", "ADM1": "Halab", "ADM2": "Ain Al Arab", "ADM3": "Ain Al Arab", "ADM4": "Ain Al Arab", "Latitude": "36.894", "Longitude": "38.33", "PCODE": "SY020600C1946", "fips": "SY", "iso_alpha2": "SY", "iso_alpha3": "SYR", "stanag": "SYR", "tld": ".sy", "GENC2": "SY" }, "geometry": { "type": "Point", "coordinates": [ 38.33, 36.894 ] } },
{ "type": "Feature", "properties": { "Name": "Awwas IDP Camp Northeast", "description": "Country: Syria<br>ADM1: Halab<br>ADM2: Ain Al Arab<br>ADM3: Lower Shyookh<br>ADM4: Upper Shyookh<br>Latitude: 36.772<br>Longitude: 38.084<br>Name: Awwas IDP Camp Northeast<br>PCODE: SY020601C2002<br>fips: SY<br>iso_alpha2: SY<br>iso_alpha3: SYR<br>stanag: SYR<br>tld: .sy<br>GENC2: SY", "Country": "Syria", "ADM1": "Halab", "ADM2": "Ain Al Arab", "ADM3": "Lower Shyookh", "ADM4": "Upper Shyookh", "Latitude": "36.772", "Longitude": "38.084", "PCODE": "SY020601C2002", "fips": "SY", "iso_alpha2": "SY", "iso_alpha3": "SYR", "stanag": "SYR", "tld": ".sy", "GENC2": "SY" }, "geometry": { "type": "Point", "coordinates": [ 38.084, 36.772 ] } },
{ "type": "Feature", "properties": { "Name": "Awwas IDP Camp", "description": "Country: Syria<br>ADM1: Halab<br>ADM2: Ain Al Arab<br>ADM3: Lower Shyookh<br>ADM4: Upper Shyookh<br>Latitude: 36.763<br>Longitude: 38.069<br>Name: Awwas IDP Camp<br>PCODE: SY020601C2002<br>fips: SY<br>iso_alpha2: SY<br>iso_alpha3: SYR<br>stanag: SYR<br>tld: .sy<br>GENC2: SY", "Country": "Syria", "ADM1": "Halab", "ADM2": "Ain Al Arab", "ADM3": "Lower Shyookh", "ADM4": "Upper Shyookh", "Latitude": "36.763", "Longitude": "38.069", "PCODE": "SY020601C2002", "fips": "SY", "iso_alpha2": "SY", "iso_alpha3": "SYR", "stanag": "SYR", "tld": ".sy", "GENC2": "SY" }, "geometry": { "type": "Point", "coordinates": [ 38.069, 36.763 ] } },
{ "type": "Feature", "properties": { "Name": "Qassarjah Sudji IDP Camp", "description": "Country: Syria<br>ADM1: Halab<br>ADM2: A'zaz<br>ADM3: A'zaz<br>ADM4: Salama<br>Latitude: 36.623<br>Longitude: 37.092<br>Name: Qassarjah Sudji IDP Camp<br>PCODE: SY020400C1561<br>fips: SY<br>iso_alpha2: SY<br>iso_alpha3: SYR<br>stanag: SYR<br>tld: .sy<br>GENC2: SY", "Country": "Syria", "ADM1": "Halab", "ADM2": "A'zaz", "ADM3": "A'zaz", "ADM4": "Salama", "Latitude": "36.623", "Longitude": "37.092", "PCODE": "SY020400C1561", "fips": "SY", "iso_alpha2": "SY", "iso_alpha3": "SYR", "stanag": "SYR", "tld": ".sy", "GENC2": "SY" }, "geometry": { "type": "Point", "coordinates": [ 37.092, 36.623 ] } },
{ "type": "Feature", "properties": { "Name": "Azaz Customs Border Crossing Ne", "description": "Country: Syria<br>ADM1: Halab<br>ADM2: A'zaz<br>ADM3: A'zaz<br>ADM4: Salama<br>Latitude: 36.632<br>Longitude: 37.084<br>Name: Azaz Customs Border Crossing Ne<br>PCODE: SY020400C1561<br>fips: SY<br>iso_alpha2: SY<br>iso_alpha3: SYR<br>stanag: SYR<br>tld: .sy<br>GENC2: SY", "Country": "Syria", "ADM1": "Halab", "ADM2": "A'zaz", "ADM3": "A'zaz", "ADM4": "Salama", "Latitude": "36.632", "Longitude": "37.084", "PCODE": "SY020400C1561", "fips": "SY", "iso_alpha2": "SY", "iso_alpha3": "SYR", "stanag": "SYR", "tld": ".sy", "GENC2": "SY" }, "geometry": { "type": "Point", "coordinates": [ 37.084, 36.632 ] } },
{ "type": "Feature", "properties": { "Name": "Azaz Border Crossing Refugee Camp", "description": "Country: Syria<br>ADM1: Halab<br>ADM2: A'zaz<br>ADM3: A'zaz<br>ADM4: Salama<br>Latitude: 36.63<br>Longitude: 37.086<br>Name: Azaz Border Crossing Refugee Camp<br>PCODE: SY020400C1561<br>fips: SY<br>iso_alpha2: SY<br>iso_alpha3: SYR<br>stanag: SYR<br>tld: .sy<br>GENC2: SY", "Country": "Syria", "ADM1": "Halab", "ADM2": "A'zaz", "ADM3": "A'zaz", "ADM4": "Salama", "Latitude": "36.63", "Longitude": "37.086", "PCODE": "SY020400C1561", "fips": "SY", "iso_alpha2": "SY", "iso_alpha3": "SYR", "stanag": "SYR", "tld": ".sy", "GENC2": "SY" }, "geometry": { "type": "Point", "coordinates": [ 37.086, 36.63 ] } },
{ "type": "Feature", "properties": { "Name": "Sharmarin Camp", "description": "Country: Syria<br>ADM1: Halab<br>ADM2: A'zaz<br>ADM3: A'zaz<br>ADM4: Shamarin<br>Latitude: 36.654<br>Longitude: 37.14<br>Name: Sharmarin Camp<br>PCODE: SY020400C1566<br>fips: SY<br>iso_alpha2: SY<br>iso_alpha3: SYR<br>stanag: SYR<br>tld: .sy<br>GENC2: SY", "Country": "Syria", "ADM1": "Halab", "ADM2": "A'zaz", "ADM3": "A'zaz", "ADM4": "Shamarin", "Latitude": "36.654", "Longitude": "37.14", "PCODE": "SY020400C1566", "fips": "SY", "iso_alpha2": "SY", "iso_alpha3": "SYR", "stanag": "SYR", "tld": ".sy", "GENC2": "SY" }, "geometry": { "type": "Point", "coordinates": [ 37.14, 36.654 ] } },
{ "type": "Feature", "properties": { "Name": "Shamarin IDP Camp West", "description": "Country: Syria<br>ADM1: Halab<br>ADM2: A'zaz<br>ADM3: A'zaz<br>ADM4: Shamarin<br>Latitude: 36.653<br>Longitude: 37.128<br>Name: Shamarin IDP Camp West<br>PCODE: SY020400C1566<br>fips: SY<br>iso_alpha2: SY<br>iso_alpha3: SYR<br>stanag: SYR<br>tld: .sy<br>GENC2: SY", "Country": "Syria", "ADM1": "Halab", "ADM2": "A'zaz", "ADM3": "A'zaz", "ADM4": "Shamarin", "Latitude": "36.653", "Longitude": "37.128", "PCODE": "SY020400C1566", "fips": "SY", "iso_alpha2": "SY", "iso_alpha3": "SYR", "stanag": "SYR", "tld": ".sy", "GENC2": "SY" }, "geometry": { "type": "Point", "coordinates": [ 37.128, 36.653 ] } },
{ "type": "Feature", "properties": { "Name": "Shamarin IDP Camp Southeast", "description": "Country: Syria<br>ADM1: Halab<br>ADM2: A'zaz<br>ADM3: A'zaz<br>ADM4: Shamarin<br>Latitude: 36.638<br>Longitude: 37.147<br>Name: Shamarin IDP Camp Southeast<br>PCODE: SY020400C1566<br>fips: SY<br>iso_alpha2: SY<br>iso_alpha3: SYR<br>stanag: SYR<br>tld: .sy<br>GENC2: SY", "Country": "Syria", "ADM1": "Halab", "ADM2": "A'zaz", "ADM3": "A'zaz", "ADM4": "Shamarin", "Latitude": "36.638", "Longitude": "37.147", "PCODE": "SY020400C1566", "fips": "SY", "iso_alpha2": "SY", "iso_alpha3": "SYR", "stanag": "SYR", "tld": ".sy", "GENC2": "SY" }, "geometry": { "type": "Point", "coordinates": [ 37.147, 36.638 ] } },
{ "type": "Feature", "properties": { "Name": "Shamarin IDP Camp North", "description": "Country: Syria<br>ADM1: Halab<br>ADM2: A'zaz<br>ADM3: A'zaz<br>ADM4: Shamarin<br>Latitude: 36.661<br>Longitude: 37.136<br>Name: Shamarin IDP Camp North<br>PCODE: SY020400C1566<br>fips: SY<br>iso_alpha2: SY<br>iso_alpha3: SYR<br>stanag: SYR<br>tld: .sy<br>GENC2: SY", "Country": "Syria", "ADM1": "Halab", "ADM2": "A'zaz", "ADM3": "A'zaz", "ADM4": "Shamarin", "Latitude": "36.661", "Longitude": "37.136", "PCODE": "SY020400C1566", "fips": "SY", "iso_alpha2": "SY", "iso_alpha3": "SYR", "stanag": "SYR", "tld": ".sy", "GENC2": "SY" }, "geometry": { "type": "Point", "coordinates": [ 37.136, 36.661 ] } },
{ "type": "Feature", "properties": { "Name": "Tulayl Ash Sham IDP Camp", "description": "Country: Syria<br>ADM1: Halab<br>ADM2: A'zaz<br>ADM3: A'zaz<br>ADM4: Talil Elsham<br>Latitude: 36.655<br>Longitude: 37.118<br>Name: Tulayl Ash Sham IDP Camp<br>PCODE: SY020400C1559<br>fips: SY<br>iso_alpha2: SY<br>iso_alpha3: SYR<br>stanag: SYR<br>tld: .sy<br>GENC2: SY", "Country": "Syria", "ADM1": "Halab", "ADM2": "A'zaz", "ADM3": "A'zaz", "ADM4": "Talil Elsham", "Latitude": "36.655", "Longitude": "37.118", "PCODE": "SY020400C1559", "fips": "SY", "iso_alpha2": "SY", "iso_alpha3": "SYR", "stanag": "SYR", "tld": ".sy", "GENC2": "SY" }, "geometry": { "type": "Point", "coordinates": [ 37.118, 36.655 ] } },
{ "type": "Feature", "properties": { "Name": "Kafr Burayshah IDP Camp", "description": "Country: Syria<br>ADM1: Halab<br>ADM2: A'zaz<br>ADM3: Suran<br>ADM4: Kafr Barja<br>Latitude: 36.627<br>Longitude: 37.146<br>Name: Kafr Burayshah IDP Camp<br>PCODE: SY020405C1671<br>fips: SY<br>iso_alpha2: SY<br>iso_alpha3: SYR<br>stanag: SYR<br>tld: .sy<br>GENC2: SY", "Country": "Syria", "ADM1": "Halab", "ADM2": "A'zaz", "ADM3": "Suran", "ADM4": "Kafr Barja", "Latitude": "36.627", "Longitude": "37.146", "PCODE": "SY020405C1671", "fips": "SY", "iso_alpha2": "SY", "iso_alpha3": "SYR", "stanag": "SYR", "tld": ".sy", "GENC2": "SY" }, "geometry": { "type": "Point", "coordinates": [ 37.146, 36.627 ] } },
{ "type": "Feature", "properties": { "Name": "Harjalah IDP Camp", "description": "Country: Syria<br>ADM1: Halab<br>ADM2: A'zaz<br>ADM3: Suran<br>ADM4: Kiwar Kalas<br>Latitude: 36.669<br>Longitude: 37.24<br>Name: Harjalah IDP Camp<br>PCODE: SY020405C1661<br>fips: SY<br>iso_alpha2: SY<br>iso_alpha3: SYR<br>stanag: SYR<br>tld: .sy<br>GENC2: SY", "Country": "Syria", "ADM1": "Halab", "ADM2": "A'zaz", "ADM3": "Suran", "ADM4": "Kiwar Kalas", "Latitude": "36.669", "Longitude": "37.24", "PCODE": "SY020405C1661", "fips": "SY", "iso_alpha2": "SY", "iso_alpha3": "SYR", "stanag": "SYR", "tld": ".sy", "GENC2": "SY" }, "geometry": { "type": "Point", "coordinates": [ 37.24, 36.669 ] } },
{ "type": "Feature", "properties": { "Name": "Ikadah IDP Camp", "description": "Country: Syria<br>ADM1: Halab<br>ADM2: A'zaz<br>ADM3: Suran<br>ADM4: Zayzafun -Ekdeh<br>Latitude: 36.66<br>Longitude: 37.182<br>Name: Ikadah IDP Camp<br>PCODE: SY020405C1658<br>fips: SY<br>iso_alpha2: SY<br>iso_alpha3: SYR<br>stanag: SYR<br>tld: .sy<br>GENC2: SY", "Country": "Syria", "ADM1": "Halab", "ADM2": "A'zaz", "ADM3": "Suran", "ADM4": "Zayzafun -Ekdeh", "Latitude": "36.66", "Longitude": "37.182", "PCODE": "SY020405C1658", "fips": "SY", "iso_alpha2": "SY", "iso_alpha3": "SYR", "stanag": "SYR", "tld": ".sy", "GENC2": "SY" }, "geometry": { "type": "Point", "coordinates": [ 37.182, 36.66 ] } },
{ "type": "Feature", "properties": { "Name": "Tall Rifat IDP Camp 002", "description": "Country: Syria<br>ADM1: Halab<br>ADM2: A'zaz<br>ADM3: Tall Refaat<br>ADM4: Tall Refaat<br>Latitude: 36.463<br>Longitude: 37.126<br>Name: Tall Rifat IDP Camp 002<br>PCODE: SY020402C1621<br>fips: SY<br>iso_alpha2: SY<br>iso_alpha3: SYR<br>stanag: SYR<br>tld: .sy<br>GENC2: SY", "Country": "Syria", "ADM1": "Halab", "ADM2": "A'zaz", "ADM3": "Tall Refaat", "ADM4": "Tall Refaat", "Latitude": "36.463", "Longitude": "37.126", "PCODE": "SY020402C1621", "fips": "SY", "iso_alpha2": "SY", "iso_alpha3": "SYR", "stanag": "SYR", "tld": ".sy", "GENC2": "SY" }, "geometry": { "type": "Point", "coordinates": [ 37.126, 36.463 ] } },
{ "type": "Feature", "properties": { "Name": "Tall Rifat IDP Camp", "description": "Country: Syria<br>ADM1: Halab<br>ADM2: A'zaz<br>ADM3: Tall Refaat<br>ADM4: Tall Refaat<br>Latitude: 36.471<br>Longitude: 37.06<br>Name: Tall Rifat IDP Camp<br>PCODE: SY020402C1621<br>fips: SY<br>iso_alpha2: SY<br>iso_alpha3: SYR<br>stanag: SYR<br>tld: .sy<br>GENC2: SY", "Country": "Syria", "ADM1": "Halab", "ADM2": "A'zaz", "ADM3": "Tall Refaat", "ADM4": "Tall Refaat", "Latitude": "36.471", "Longitude": "37.06", "PCODE": "SY020402C1621", "fips": "SY", "iso_alpha2": "SY", "iso_alpha3": "SYR", "stanag": "SYR", "tld": ".sy", "GENC2": "SY" }, "geometry": { "type": "Point", "coordinates": [ 37.06, 36.471 ] } },
{ "type": "Feature", "properties": { "Name": "Jarabulus South IDP Camp", "description": "Country: Syria<br>ADM1: Halab<br>ADM2: Jarablus<br>ADM3: Jarablus<br>ADM4: Jarablus<br>Latitude: 36.808<br>Longitude: 38.01<br>Name: Jarabulus South IDP Camp<br>PCODE: SY020800C2227<br>fips: SY<br>iso_alpha2: SY<br>iso_alpha3: SYR<br>stanag: SYR<br>tld: .sy<br>GENC2: SY", "Country": "Syria", "ADM1": "Halab", "ADM2": "Jarablus", "ADM3": "Jarablus", "ADM4": "Jarablus", "Latitude": "36.808", "Longitude": "38.01", "PCODE": "SY020800C2227", "fips": "SY", "iso_alpha2": "SY", "iso_alpha3": "SYR", "stanag": "SYR", "tld": ".sy", "GENC2": "SY" }, "geometry": { "type": "Point", "coordinates": [ 38.01, 36.808 ] } },
{ "type": "Feature", "properties": { "Name": "Jarabulus IDP Camp", "description": "Country: Syria<br>ADM1: Halab<br>ADM2: Jarablus<br>ADM3: Jarablus<br>ADM4: Jarablus<br>Latitude: 36.824<br>Longitude: 38.012<br>Name: Jarabulus IDP Camp<br>PCODE: SY020800C2227<br>fips: SY<br>iso_alpha2: SY<br>iso_alpha3: SYR<br>stanag: SYR<br>tld: .sy<br>GENC2: SY", "Country": "Syria", "ADM1": "Halab", "ADM2": "Jarablus", "ADM3": "Jarablus", "ADM4": "Jarablus", "Latitude": "36.824", "Longitude": "38.012", "PCODE": "SY020800C2227", "fips": "SY", "iso_alpha2": "SY", "iso_alpha3": "SYR", "stanag": "SYR", "tld": ".sy", "GENC2": "SY" }, "geometry": { "type": "Point", "coordinates": [ 38.012, 36.824 ] } },
{ "type": "Feature", "properties": { "Name": "Manbij IDP Camp 002", "description": "Country: Syria<br>ADM1: Halab<br>ADM2: Menbij<br>ADM3: Menbij<br>ADM4: Menbij<br>Latitude: 36.509<br>Longitude: 37.932<br>Name: Manbij IDP Camp 002<br>PCODE: SY020500C1767<br>fips: SY<br>iso_alpha2: SY<br>iso_alpha3: SYR<br>stanag: SYR<br>tld: .sy<br>GENC2: SY", "Country": "Syria", "ADM1": "Halab", "ADM2": "Menbij", "ADM3": "Menbij", "ADM4": "Menbij", "Latitude": "36.509", "Longitude": "37.932", "PCODE": "SY020500C1767", "fips": "SY", "iso_alpha2": "SY", "iso_alpha3": "SYR", "stanag": "SYR", "tld": ".sy", "GENC2": "SY" }, "geometry": { "type": "Point", "coordinates": [ 37.932, 36.509 ] } },
{ "type": "Feature", "properties": { "Name": "Manbij IDP Camp 001", "description": "Country: Syria<br>ADM1: Halab<br>ADM2: Menbij<br>ADM3: Menbij<br>ADM4: Menbij<br>Latitude: 36.525<br>Longitude: 37.911<br>Name: Manbij IDP Camp 001<br>PCODE: SY020500C1767<br>fips: SY<br>iso_alpha2: SY<br>iso_alpha3: SYR<br>stanag: SYR<br>tld: .sy<br>GENC2: SY", "Country": "Syria", "ADM1": "Halab", "ADM2": "Menbij", "ADM3": "Menbij", "ADM4": "Menbij", "Latitude": "36.525", "Longitude": "37.911", "PCODE": "SY020500C1767", "fips": "SY", "iso_alpha2": "SY", "iso_alpha3": "SYR", "stanag": "SYR", "tld": ".sy", "GENC2": "SY" }, "geometry": { "type": "Point", "coordinates": [ 37.911, 36.525 ] } },
{ "type": "Feature", "properties": { "Name": "Unnamed", "description": "Country: Syria<br>ADM1: Halab<br>ADM2: <br>ADM3: <br>ADM4: <br>Latitude: 36.655<br>Longitude: 37.118<br>Name: Unnamed<br>PCODE: <br>fips: SY<br>iso_alpha2: SY<br>iso_alpha3: SYR<br>stanag: SYR<br>tld: .sy<br>GENC2: SY", "Country": "Syria", "ADM1": "Halab", "ADM2": "", "ADM3": "", "ADM4": "", "Latitude": "36.655", "Longitude": "37.118", "PCODE": "", "fips": "SY", "iso_alpha2": "SY", "iso_alpha3": "SYR", "stanag": "SYR", "tld": ".sy", "GENC2": "SY" }, "geometry": { "type": "Point", "coordinates": [ 37.118, 36.655 ] } },
{ "type": "Feature", "properties": { "Name": "Hisyah IDP Camp", "description": "Country: Syria<br>ADM1: Homs<br>ADM2: Homs<br>ADM3: Hasyaa<br>ADM4: Hasyaa<br>Latitude: 34.404<br>Longitude: 36.764<br>Name: Hisyah IDP Camp<br>PCODE: SY040108C2675<br>fips: SY<br>iso_alpha2: SY<br>iso_alpha3: SYR<br>stanag: SYR<br>tld: .sy<br>GENC2: SY", "Country": "Syria", "ADM1": "Homs", "ADM2": "Homs", "ADM3": "Hasyaa", "ADM4": "Hasyaa", "Latitude": "34.404", "Longitude": "36.764", "PCODE": "SY040108C2675", "fips": "SY", "iso_alpha2": "SY", "iso_alpha3": "SYR", "stanag": "SYR", "tld": ".sy", "GENC2": "SY" }, "geometry": { "type": "Point", "coordinates": [ 36.764, 34.404 ] } },
{ "type": "Feature", "properties": { "Name": "Atimah IDP Camp Southeast", "description": "Country: Syria<br>ADM1: Idlib<br>ADM2: Dana<br>ADM3: Harim<br>ADM4: Qah<br>Latitude: 36.293<br>Longitude: 36.702<br>Name: Atimah IDP Camp Southeast<br>PCODE: SY070301C4131<br>fips: SY<br>iso_alpha2: SY<br>iso_alpha3: SYR<br>stanag: SYR<br>tld: .sy<br>GENC2: SY", "Country": "Syria", "ADM1": "Idlib", "ADM2": "Dana", "ADM3": "Harim", "ADM4": "Qah", "Latitude": "36.293", "Longitude": "36.702", "PCODE": "SY070301C4131", "fips": "SY", "iso_alpha2": "SY", "iso_alpha3": "SYR", "stanag": "SYR", "tld": ".sy", "GENC2": "SY" }, "geometry": { "type": "Point", "coordinates": [ 36.702, 36.293 ] } },
{ "type": "Feature", "properties": { "Name": "Kafaldn Meydan IDP Camp", "description": "Country: Syria<br>ADM1: Idlib<br>ADM2: Harim<br>ADM3: Dana<br>ADM4: Aqrabat<br>Latitude: 36.263<br>Longitude: 36.729<br>Name: Kafaldn Meydan IDP Camp<br>PCODE: SY070301C4127<br>fips: SY<br>iso_alpha2: SY<br>iso_alpha3: SYR<br>stanag: SYR<br>tld: .sy<br>GENC2: SY", "Country": "Syria", "ADM1": "Idlib", "ADM2": "Harim", "ADM3": "Dana", "ADM4": "Aqrabat", "Latitude": "36.263", "Longitude": "36.729", "PCODE": "SY070301C4127", "fips": "SY", "iso_alpha2": "SY", "iso_alpha3": "SYR", "stanag": "SYR", "tld": ".sy", "GENC2": "SY" }, "geometry": { "type": "Point", "coordinates": [ 36.729, 36.263 ] } },
{ "type": "Feature", "properties": { "Name": "Kafaldin North IDP Camp", "description": "Country: Syria<br>ADM1: Idlib<br>ADM2: Harim<br>ADM3: Dana<br>ADM4: Aqrabat<br>Latitude: 36.268<br>Longitude: 36.721<br>Name: Kafaldin North IDP Camp<br>PCODE: SY070301C4127<br>fips: SY<br>iso_alpha2: SY<br>iso_alpha3: SYR<br>stanag: SYR<br>tld: .sy<br>GENC2: SY", "Country": "Syria", "ADM1": "Idlib", "ADM2": "Harim", "ADM3": "Dana", "ADM4": "Aqrabat", "Latitude": "36.268", "Longitude": "36.721", "PCODE": "SY070301C4127", "fips": "SY", "iso_alpha2": "SY", "iso_alpha3": "SYR", "stanag": "SYR", "tld": ".sy", "GENC2": "SY" }, "geometry": { "type": "Point", "coordinates": [ 36.721, 36.268 ] } },
{ "type": "Feature", "properties": { "Name": "Kafaldin IDP Camp Southwest", "description": "Country: Syria<br>ADM1: Idlib<br>ADM2: Harim<br>ADM3: Dana<br>ADM4: Aqrabat<br>Latitude: 36.249<br>Longitude: 36.711<br>Name: Kafaldin IDP Camp Southwest<br>PCODE: SY070301C4127<br>fips: SY<br>iso_alpha2: SY<br>iso_alpha3: SYR<br>stanag: SYR<br>tld: .sy<br>GENC2: SY", "Country": "Syria", "ADM1": "Idlib", "ADM2": "Harim", "ADM3": "Dana", "ADM4": "Aqrabat", "Latitude": "36.249", "Longitude": "36.711", "PCODE": "SY070301C4127", "fips": "SY", "iso_alpha2": "SY", "iso_alpha3": "SYR", "stanag": "SYR", "tld": ".sy", "GENC2": "SY" }, "geometry": { "type": "Point", "coordinates": [ 36.711, 36.249 ] } },
{ "type": "Feature", "properties": { "Name": "Aqrabat Southwest IDP Camp", "description": "Country: Syria<br>ADM1: Idlib<br>ADM2: Harim<br>ADM3: Dana<br>ADM4: Aqrabat<br>Latitude: 36.266<br>Longitude: 36.702<br>Name: Aqrabat Southwest IDP Camp<br>PCODE: SY070301C4127<br>fips: SY<br>iso_alpha2: SY<br>iso_alpha3: SYR<br>stanag: SYR<br>tld: .sy<br>GENC2: SY", "Country": "Syria", "ADM1": "Idlib", "ADM2": "Harim", "ADM3": "Dana", "ADM4": "Aqrabat", "Latitude": "36.266", "Longitude": "36.702", "PCODE": "SY070301C4127", "fips": "SY", "iso_alpha2": "SY", "iso_alpha3": "SYR", "stanag": "SYR", "tld": ".sy", "GENC2": "SY" }, "geometry": { "type": "Point", "coordinates": [ 36.702, 36.266 ] } },
{ "type": "Feature", "properties": { "Name": "Aqrabat IDP Camp", "description": "Country: Syria<br>ADM1: Idlib<br>ADM2: Harim<br>ADM3: Dana<br>ADM4: Aqrabat<br>Latitude: 36.277<br>Longitude: 36.723<br>Name: Aqrabat IDP Camp<br>PCODE: SY070301C4127<br>fips: SY<br>iso_alpha2: SY<br>iso_alpha3: SYR<br>stanag: SYR<br>tld: .sy<br>GENC2: SY", "Country": "Syria", "ADM1": "Idlib", "ADM2": "Harim", "ADM3": "Dana", "ADM4": "Aqrabat", "Latitude": "36.277", "Longitude": "36.723", "PCODE": "SY070301C4127", "fips": "SY", "iso_alpha2": "SY", "iso_alpha3": "SYR", "stanag": "SYR", "tld": ".sy", "GENC2": "SY" }, "geometry": { "type": "Point", "coordinates": [ 36.723, 36.277 ] } },
{ "type": "Feature", "properties": { "Name": "Ad Dana IDP Camp", "description": "Country: Syria<br>ADM1: Idlib<br>ADM2: Harim<br>ADM3: Dana<br>ADM4: Dana<br>Latitude: 36.204<br>Longitude: 36.757<br>Name: Ad Dana IDP Camp<br>PCODE: SY070301C4126<br>fips: SY<br>iso_alpha2: SY<br>iso_alpha3: SYR<br>stanag: SYR<br>tld: .sy<br>GENC2: SY", "Country": "Syria", "ADM1": "Idlib", "ADM2": "Harim", "ADM3": "Dana", "ADM4": "Dana", "Latitude": "36.204", "Longitude": "36.757", "PCODE": "SY070301C4126", "fips": "SY", "iso_alpha2": "SY", "iso_alpha3": "SYR", "stanag": "SYR", "tld": ".sy", "GENC2": "SY" }, "geometry": { "type": "Point", "coordinates": [ 36.757, 36.204 ] } },
{ "type": "Feature", "properties": { "Name": "Sarmada IDP Camp 02", "description": "Country: Syria<br>ADM1: Idlib<br>ADM2: Harim<br>ADM3: Dana<br>ADM4: Deir Hassan<br>Latitude: 36.209<br>Longitude: 36.723<br>Name: Sarmada IDP Camp 02<br>PCODE: SY070301C4129<br>fips: SY<br>iso_alpha2: SY<br>iso_alpha3: SYR<br>stanag: SYR<br>tld: .sy<br>GENC2: SY", "Country": "Syria", "ADM1": "Idlib", "ADM2": "Harim", "ADM3": "Dana", "ADM4": "Deir Hassan", "Latitude": "36.209", "Longitude": "36.723", "PCODE": "SY070301C4129", "fips": "SY", "iso_alpha2": "SY", "iso_alpha3": "SYR", "stanag": "SYR", "tld": ".sy", "GENC2": "SY" }, "geometry": { "type": "Point", "coordinates": [ 36.723, 36.209 ] } },
{ "type": "Feature", "properties": { "Name": "Sarmada IDP Camp 003", "description": "Country: Syria<br>ADM1: Idlib<br>ADM2: Harim<br>ADM3: Dana<br>ADM4: Deir Hassan<br>Latitude: 36.204<br>Longitude: 36.734<br>Name: Sarmada IDP Camp 003<br>PCODE: SY070301C4129<br>fips: SY<br>iso_alpha2: SY<br>iso_alpha3: SYR<br>stanag: SYR<br>tld: .sy<br>GENC2: SY", "Country": "Syria", "ADM1": "Idlib", "ADM2": "Harim", "ADM3": "Dana", "ADM4": "Deir Hassan", "Latitude": "36.204", "Longitude": "36.734", "PCODE": "SY070301C4129", "fips": "SY", "iso_alpha2": "SY", "iso_alpha3": "SYR", "stanag": "SYR", "tld": ".sy", "GENC2": "SY" }, "geometry": { "type": "Point", "coordinates": [ 36.734, 36.204 ] } },
{ "type": "Feature", "properties": { "Name": "Sarmada IDP Camp", "description": "Country: Syria<br>ADM1: Idlib<br>ADM2: Harim<br>ADM3: Dana<br>ADM4: Deir Hassan<br>Latitude: 36.206<br>Longitude: 36.73<br>Name: Sarmada IDP Camp<br>PCODE: SY070301C4129<br>fips: SY<br>iso_alpha2: SY<br>iso_alpha3: SYR<br>stanag: SYR<br>tld: .sy<br>GENC2: SY", "Country": "Syria", "ADM1": "Idlib", "ADM2": "Harim", "ADM3": "Dana", "ADM4": "Deir Hassan", "Latitude": "36.206", "Longitude": "36.73", "PCODE": "SY070301C4129", "fips": "SY", "iso_alpha2": "SY", "iso_alpha3": "SYR", "stanag": "SYR", "tld": ".sy", "GENC2": "SY" }, "geometry": { "type": "Point", "coordinates": [ 36.73, 36.206 ] } },
{ "type": "Feature", "properties": { "Name": "Dayr Hashshan IDP Camp", "description": "Country: Syria<br>ADM1: Idlib<br>ADM2: Harim<br>ADM3: Dana<br>ADM4: Deir Hassan<br>Latitude: 36.236<br>Longitude: 36.753<br>Name: Dayr Hashshan IDP Camp<br>PCODE: SY070301C4129<br>fips: SY<br>iso_alpha2: SY<br>iso_alpha3: SYR<br>stanag: SYR<br>tld: .sy<br>GENC2: SY", "Country": "Syria", "ADM1": "Idlib", "ADM2": "Harim", "ADM3": "Dana", "ADM4": "Deir Hassan", "Latitude": "36.236", "Longitude": "36.753", "PCODE": "SY070301C4129", "fips": "SY", "iso_alpha2": "SY", "iso_alpha3": "SYR", "stanag": "SYR", "tld": ".sy", "GENC2": "SY" }, "geometry": { "type": "Point", "coordinates": [ 36.753, 36.236 ] } },
{ "type": "Feature", "properties": { "Name": "Bab al Hawa Upper IDP Camp", "description": "Country: Syria<br>ADM1: Idlib<br>ADM2: Harim<br>ADM3: Dana<br>ADM4: Deir Hassan<br>Latitude: 36.213<br>Longitude: 36.715<br>Name: Bab al Hawa Upper IDP Camp<br>PCODE: SY070301C4129<br>fips: SY<br>iso_alpha2: SY<br>iso_alpha3: SYR<br>stanag: SYR<br>tld: .sy<br>GENC2: SY", "Country": "Syria", "ADM1": "Idlib", "ADM2": "Harim", "ADM3": "Dana", "ADM4": "Deir Hassan", "Latitude": "36.213", "Longitude": "36.715", "PCODE": "SY070301C4129", "fips": "SY", "iso_alpha2": "SY", "iso_alpha3": "SYR", "stanag": "SYR", "tld": ".sy", "GENC2": "SY" }, "geometry": { "type": "Point", "coordinates": [ 36.715, 36.213 ] } },
{ "type": "Feature", "properties": { "Name": "Bab al Hawa Lower IDP Camp", "description": "Country: Syria<br>ADM1: Idlib<br>ADM2: Harim<br>ADM3: Dana<br>ADM4: Deir Hassan<br>Latitude: 36.211<br>Longitude: 36.715<br>Name: Bab al Hawa Lower IDP Camp<br>PCODE: SY070301C4129<br>fips: SY<br>iso_alpha2: SY<br>iso_alpha3: SYR<br>stanag: SYR<br>tld: .sy<br>GENC2: SY", "Country": "Syria", "ADM1": "Idlib", "ADM2": "Harim", "ADM3": "Dana", "ADM4": "Deir Hassan", "Latitude": "36.211", "Longitude": "36.715", "PCODE": "SY070301C4129", "fips": "SY", "iso_alpha2": "SY", "iso_alpha3": "SYR", "stanag": "SYR", "tld": ".sy", "GENC2": "SY" }, "geometry": { "type": "Point", "coordinates": [ 36.715, 36.211 ] } },
{ "type": "Feature", "properties": { "Name": "Qah West IDP Camp", "description": "Country: Syria<br>ADM1: Idlib<br>ADM2: Harim<br>ADM3: Dana<br>ADM4: Qah<br>Latitude: 36.29<br>Longitude: 36.711<br>Name: Qah West IDP Camp<br>PCODE: SY070301C4131<br>fips: SY<br>iso_alpha2: SY<br>iso_alpha3: SYR<br>stanag: SYR<br>tld: .sy<br>GENC2: SY", "Country": "Syria", "ADM1": "Idlib", "ADM2": "Harim", "ADM3": "Dana", "ADM4": "Qah", "Latitude": "36.29", "Longitude": "36.711", "PCODE": "SY070301C4131", "fips": "SY", "iso_alpha2": "SY", "iso_alpha3": "SYR", "stanag": "SYR", "tld": ".sy", "GENC2": "SY" }, "geometry": { "type": "Point", "coordinates": [ 36.711, 36.29 ] } },
{ "type": "Feature", "properties": { "Name": "Qah Southwest IDP Camp", "description": "Country: Syria<br>ADM1: Idlib<br>ADM2: Harim<br>ADM3: Dana<br>ADM4: Qah<br>Latitude: 36.283<br>Longitude: 36.72<br>Name: Qah Southwest IDP Camp<br>PCODE: SY070301C4131<br>fips: SY<br>iso_alpha2: SY<br>iso_alpha3: SYR<br>stanag: SYR<br>tld: .sy<br>GENC2: SY", "Country": "Syria", "ADM1": "Idlib", "ADM2": "Harim", "ADM3": "Dana", "ADM4": "Qah", "Latitude": "36.283", "Longitude": "36.72", "PCODE": "SY070301C4131", "fips": "SY", "iso_alpha2": "SY", "iso_alpha3": "SYR", "stanag": "SYR", "tld": ".sy", "GENC2": "SY" }, "geometry": { "type": "Point", "coordinates": [ 36.72, 36.283 ] } },
{ "type": "Feature", "properties": { "Name": "Qah IDP Camp", "description": "Country: Syria<br>ADM1: Idlib<br>ADM2: Harim<br>ADM3: Dana<br>ADM4: Qah<br>Latitude: 36.293<br>Longitude: 36.728<br>Name: Qah IDP Camp<br>PCODE: SY070301C4131<br>fips: SY<br>iso_alpha2: SY<br>iso_alpha3: SYR<br>stanag: SYR<br>tld: .sy<br>GENC2: SY", "Country": "Syria", "ADM1": "Idlib", "ADM2": "Harim", "ADM3": "Dana", "ADM4": "Qah", "Latitude": "36.293", "Longitude": "36.728", "PCODE": "SY070301C4131", "fips": "SY", "iso_alpha2": "SY", "iso_alpha3": "SYR", "stanag": "SYR", "tld": ".sy", "GENC2": "SY" }, "geometry": { "type": "Point", "coordinates": [ 36.728, 36.293 ] } },
{ "type": "Feature", "properties": { "Name": "Shaykh Hasan Camp Southwest", "description": "Country: Syria<br>ADM1: Idlib<br>ADM2: Harim<br>ADM3: Dana<br>ADM4: Sarmada<br>Latitude: 36.201<br>Longitude: 36.71<br>Name: Shaykh Hasan Camp Southwest<br>PCODE: SY070301C4121<br>fips: SY<br>iso_alpha2: SY<br>iso_alpha3: SYR<br>stanag: SYR<br>tld: .sy<br>GENC2: SY", "Country": "Syria", "ADM1": "Idlib", "ADM2": "Harim", "ADM3": "Dana", "ADM4": "Sarmada", "Latitude": "36.201", "Longitude": "36.71", "PCODE": "SY070301C4121", "fips": "SY", "iso_alpha2": "SY", "iso_alpha3": "SYR", "stanag": "SYR", "tld": ".sy", "GENC2": "SY" }, "geometry": { "type": "Point", "coordinates": [ 36.71, 36.201 ] } },
{ "type": "Feature", "properties": { "Name": "Sarfud IDP Camp", "description": "Country: Syria<br>ADM1: Idlib<br>ADM2: Harim<br>ADM3: Dana<br>ADM4: Sarmada<br>Latitude: 36.183<br>Longitude: 36.691<br>Name: Sarfud IDP Camp<br>PCODE: SY070301C4121<br>fips: SY<br>iso_alpha2: SY<br>iso_alpha3: SYR<br>stanag: SYR<br>tld: .sy<br>GENC2: SY", "Country": "Syria", "ADM1": "Idlib", "ADM2": "Harim", "ADM3": "Dana", "ADM4": "Sarmada", "Latitude": "36.183", "Longitude": "36.691", "PCODE": "SY070301C4121", "fips": "SY", "iso_alpha2": "SY", "iso_alpha3": "SYR", "stanag": "SYR", "tld": ".sy", "GENC2": "SY" }, "geometry": { "type": "Point", "coordinates": [ 36.691, 36.183 ] } },
{ "type": "Feature", "properties": { "Name": "Dar Kuwayta Camp Northeast", "description": "Country: Syria<br>ADM1: Idlib<br>ADM2: Harim<br>ADM3: Dana<br>ADM4: Sarmada<br>Latitude: 36.217<br>Longitude: 36.693<br>Name: Dar Kuwayta Camp Northeast<br>PCODE: SY070301C4121<br>fips: SY<br>iso_alpha2: SY<br>iso_alpha3: SYR<br>stanag: SYR<br>tld: .sy<br>GENC2: SY", "Country": "Syria", "ADM1": "Idlib", "ADM2": "Harim", "ADM3": "Dana", "ADM4": "Sarmada", "Latitude": "36.217", "Longitude": "36.693", "PCODE": "SY070301C4121", "fips": "SY", "iso_alpha2": "SY", "iso_alpha3": "SYR", "stanag": "SYR", "tld": ".sy", "GENC2": "SY" }, "geometry": { "type": "Point", "coordinates": [ 36.693, 36.217 ] } },
{ "type": "Feature", "properties": { "Name": "Baraka Khirbat Kisah IDP Camp", "description": "Country: Syria<br>ADM1: Idlib<br>ADM2: Harim<br>ADM3: Harim<br>ADM4: Harim<br>Latitude: 36.227<br>Longitude: 36.561<br>Name: Baraka Khirbat Kisah IDP Camp<br>PCODE: SY070300C4115<br>fips: SY<br>iso_alpha2: SY<br>iso_alpha3: SYR<br>stanag: SYR<br>tld: .sy<br>GENC2: SY", "Country": "Syria", "ADM1": "Idlib", "ADM2": "Harim", "ADM3": "Harim", "ADM4": "Harim", "Latitude": "36.227", "Longitude": "36.561", "PCODE": "SY070300C4115", "fips": "SY", "iso_alpha2": "SY", "iso_alpha3": "SYR", "stanag": "SYR", "tld": ".sy", "GENC2": "SY" }, "geometry": { "type": "Point", "coordinates": [ 36.561, 36.227 ] } },
{ "type": "Feature", "properties": { "Name": "Kafr Hum IDP Camp", "description": "Country: Syria<br>ADM1: Idlib<br>ADM2: Harim<br>ADM3: Harim<br>ADM4: Kafr Hum<br>Latitude: 36.198<br>Longitude: 36.474<br>Name: Kafr Hum IDP Camp<br>PCODE: SY070300C4117<br>fips: SY<br>iso_alpha2: SY<br>iso_alpha3: SYR<br>stanag: SYR<br>tld: .sy<br>GENC2: SY", "Country": "Syria", "ADM1": "Idlib", "ADM2": "Harim", "ADM3": "Harim", "ADM4": "Kafr Hum", "Latitude": "36.198", "Longitude": "36.474", "PCODE": "SY070300C4117", "fips": "SY", "iso_alpha2": "SY", "iso_alpha3": "SYR", "stanag": "SYR", "tld": ".sy", "GENC2": "SY" }, "geometry": { "type": "Point", "coordinates": [ 36.474, 36.198 ] } },
{ "type": "Feature", "properties": { "Name": "Hayr Jamus al Kibir IDP Camp", "description": "Country: Syria<br>ADM1: Idlib<br>ADM2: Harim<br>ADM3: Salqin<br>ADM4: Big Hir Jamus<br>Latitude: 36.19<br>Longitude: 36.421<br>Name: Hayr Jamus al Kibir IDP Camp<br>PCODE:  SY070302C4141<br>fips: SY<br>iso_alpha2: SY<br>iso_alpha3: SYR<br>stanag: SYR<br>tld: .sy<br>GENC2: SY", "Country": "Syria", "ADM1": "Idlib", "ADM2": "Harim", "ADM3": "Salqin", "ADM4": "Big Hir Jamus", "Latitude": "36.19", "Longitude": "36.421", "PCODE": " SY070302C4141", "fips": "SY", "iso_alpha2": "SY", "iso_alpha3": "SYR", "stanag": "SYR", "tld": ".sy", "GENC2": "SY" }, "geometry": { "type": "Point", "coordinates": [ 36.421, 36.19 ] } },
{ "type": "Feature", "properties": { "Name": "Dalbiyah IDP Camp 02", "description": "Country: Syria<br>ADM1: Idlib<br>ADM2: Harim<br>ADM3: Salqin<br>ADM4: Delbiya<br>Latitude: 36.133<br>Longitude: 36.423<br>Name: Dalbiyah IDP Camp 02<br>PCODE: SY070302C4146<br>fips: SY<br>iso_alpha2: SY<br>iso_alpha3: SYR<br>stanag: SYR<br>tld: .sy<br>GENC2: SY", "Country": "Syria", "ADM1": "Idlib", "ADM2": "Harim", "ADM3": "Salqin", "ADM4": "Delbiya", "Latitude": "36.133", "Longitude": "36.423", "PCODE": "SY070302C4146", "fips": "SY", "iso_alpha2": "SY", "iso_alpha3": "SYR", "stanag": "SYR", "tld": ".sy", "GENC2": "SY" }, "geometry": { "type": "Point", "coordinates": [ 36.423, 36.133 ] } },
{ "type": "Feature", "properties": { "Name": "Dalbiyah IDP Camp", "description": "Country: Syria<br>ADM1: Idlib<br>ADM2: Harim<br>ADM3: Salqin<br>ADM4: Delbiya<br>Latitude: 36.131<br>Longitude: 36.401<br>Name: Dalbiyah IDP Camp<br>PCODE: SY070302C4146<br>fips: SY<br>iso_alpha2: SY<br>iso_alpha3: SYR<br>stanag: SYR<br>tld: .sy<br>GENC2: SY", "Country": "Syria", "ADM1": "Idlib", "ADM2": "Harim", "ADM3": "Salqin", "ADM4": "Delbiya", "Latitude": "36.131", "Longitude": "36.401", "PCODE": "SY070302C4146", "fips": "SY", "iso_alpha2": "SY", "iso_alpha3": "SYR", "stanag": "SYR", "tld": ".sy", "GENC2": "SY" }, "geometry": { "type": "Point", "coordinates": [ 36.401, 36.131 ] } },
{ "type": "Feature", "properties": { "Name": "Khirbat Farraziyah Athme MSF Harem IDP", "description": "Country: Syria<br>ADM1: Idlib<br>ADM2: Harim<br>ADM3: Salqin<br>ADM4: Kafarna<br>Latitude: 36.197<br>Longitude: 36.432<br>Name: Khirbat Farraziyah Athme MSF Harem IDP<br>PCODE: SY070302C4149<br>fips: SY<br>iso_alpha2: SY<br>iso_alpha3: SYR<br>stanag: SYR<br>tld: .sy<br>GENC2: SY", "Country": "Syria", "ADM1": "Idlib", "ADM2": "Harim", "ADM3": "Salqin", "ADM4": "Kafarna", "Latitude": "36.197", "Longitude": "36.432", "PCODE": "SY070302C4149", "fips": "SY", "iso_alpha2": "SY", "iso_alpha3": "SYR", "stanag": "SYR", "tld": ".sy", "GENC2": "SY" }, "geometry": { "type": "Point", "coordinates": [ 36.432, 36.197 ] } },
{ "type": "Feature", "properties": { "Name": "Kafr Jat IDP Camp", "description": "Country: Syria<br>ADM1: Idlib<br>ADM2: Harim<br>ADM3: Salqin<br>ADM4: Kafr Jat<br>Latitude: 36.182<br>Longitude: 36.432<br>Name: Kafr Jat IDP Camp<br>PCODE: SY070302C4139<br>fips: SY<br>iso_alpha2: SY<br>iso_alpha3: SYR<br>stanag: SYR<br>tld: .sy<br>GENC2: SY", "Country": "Syria", "ADM1": "Idlib", "ADM2": "Harim", "ADM3": "Salqin", "ADM4": "Kafr Jat", "Latitude": "36.182", "Longitude": "36.432", "PCODE": "SY070302C4139", "fips": "SY", "iso_alpha2": "SY", "iso_alpha3": "SYR", "stanag": "SYR", "tld": ".sy", "GENC2": "SY" }, "geometry": { "type": "Point", "coordinates": [ 36.432, 36.182 ] } },
{ "type": "Feature", "properties": { "Name": "Muzanta IDP Camp", "description": "Country: Syria<br>ADM1: Idlib<br>ADM2: Idlib<br>ADM3: Harim<br>ADM4: Salqin<br>Latitude: 36.175<br>Longitude: 36.406<br>Name: Muzanta IDP Camp<br>PCODE: SY070302C4144<br>fips: SY<br>iso_alpha2: SY<br>iso_alpha3: SYR<br>stanag: SYR<br>tld: .sy<br>GENC2: SY", "Country": "Syria", "ADM1": "Idlib", "ADM2": "Idlib", "ADM3": "Harim", "ADM4": "Salqin", "Latitude": "36.175", "Longitude": "36.406", "PCODE": "SY070302C4144", "fips": "SY", "iso_alpha2": "SY", "iso_alpha3": "SYR", "stanag": "SYR", "tld": ".sy", "GENC2": "SY" }, "geometry": { "type": "Point", "coordinates": [ 36.406, 36.175 ] } },
{ "type": "Feature", "properties": { "Name": "Ubin IDP Camp", "description": "Country: Syria<br>ADM1: Idlib<br>ADM2: Jisr-Ash-Shugur<br>ADM3: Badama<br>ADM4: Badama<br>Latitude: 35.804<br>Longitude: 36.157<br>Name: Ubin IDP Camp<br>PCODE: SY070401C4226<br>fips: SY<br>iso_alpha2: SY<br>iso_alpha3: SYR<br>stanag: SYR<br>tld: .sy<br>GENC2: SY", "Country": "Syria", "ADM1": "Idlib", "ADM2": "Jisr-Ash-Shugur", "ADM3": "Badama", "ADM4": "Badama", "Latitude": "35.804", "Longitude": "36.157", "PCODE": "SY070401C4226", "fips": "SY", "iso_alpha2": "SY", "iso_alpha3": "SYR", "stanag": "SYR", "tld": ".sy", "GENC2": "SY" }, "geometry": { "type": "Point", "coordinates": [ 36.157, 35.804 ] } },
{ "type": "Feature", "properties": { "Name": "Mashta IDP Camp", "description": "Country: Syria<br>ADM1: Idlib<br>ADM2: Jisr-Ash-Shugur<br>ADM3: Badama<br>ADM4: Badama<br>Latitude: 35.831<br>Longitude: 36.192<br>Name: Mashta IDP Camp<br>PCODE: SY070401C4226<br>fips: SY<br>iso_alpha2: SY<br>iso_alpha3: SYR<br>stanag: SYR<br>tld: .sy<br>GENC2: SY", "Country": "Syria", "ADM1": "Idlib", "ADM2": "Jisr-Ash-Shugur", "ADM3": "Badama", "ADM4": "Badama", "Latitude": "35.831", "Longitude": "36.192", "PCODE": "SY070401C4226", "fips": "SY", "iso_alpha2": "SY", "iso_alpha3": "SYR", "stanag": "SYR", "tld": ".sy", "GENC2": "SY" }, "geometry": { "type": "Point", "coordinates": [ 36.192, 35.831 ] } },
{ "type": "Feature", "properties": { "Name": "Al Hambushiyah IDP Camp", "description": "Country: Syria<br>ADM1: Idlib<br>ADM2: Jisr-Ash-Shugur<br>ADM3: Badama<br>ADM4: Badama<br>Latitude: 35.831<br>Longitude: 36.192<br>Name: Al Hambushiyah IDP Camp<br>PCODE: SY070401C4226<br>fips: SY<br>iso_alpha2: SY<br>iso_alpha3: SYR<br>stanag: SYR<br>tld: .sy<br>GENC2: SY", "Country": "Syria", "ADM1": "Idlib", "ADM2": "Jisr-Ash-Shugur", "ADM3": "Badama", "ADM4": "Badama", "Latitude": "35.831", "Longitude": "36.192", "PCODE": "SY070401C4226", "fips": "SY", "iso_alpha2": "SY", "iso_alpha3": "SYR", "stanag": "SYR", "tld": ".sy", "GENC2": "SY" }, "geometry": { "type": "Point", "coordinates": [ 36.192, 35.831 ] } },
{ "type": "Feature", "properties": { "Name": "Biryas IDP Camp", "description": "Country: Syria<br>ADM1: Idlib<br>ADM2: Jisr-Ash-Shugur<br>ADM3: Badama<br>ADM4: Hanbushiyeh<br>Latitude: 35.823<br>Longitude: 36.173<br>Name: Biryas IDP Camp<br>PCODE: SY070401C4228<br>fips: SY<br>iso_alpha2: SY<br>iso_alpha3: SYR<br>stanag: SYR<br>tld: .sy<br>GENC2: SY", "Country": "Syria", "ADM1": "Idlib", "ADM2": "Jisr-Ash-Shugur", "ADM3": "Badama", "ADM4": "Hanbushiyeh", "Latitude": "35.823", "Longitude": "36.173", "PCODE": "SY070401C4228", "fips": "SY", "iso_alpha2": "SY", "iso_alpha3": "SYR", "stanag": "SYR", "tld": ".sy", "GENC2": "SY" }, "geometry": { "type": "Point", "coordinates": [ 36.173, 35.823 ] } },
{ "type": "Feature", "properties": { "Name": "Khirbat al Jawz IDP Camp 02", "description": "Country: Syria<br>ADM1: Idlib<br>ADM2: Jisr-Ash-Shugur<br>ADM3: Badama<br>ADM4: Kherbet Eljoz<br>Latitude: 35.881<br>Longitude: 36.174<br>Name: Khirbat al Jawz IDP Camp 02<br>PCODE: SY070401C4231<br>fips: SY<br>iso_alpha2: SY<br>iso_alpha3: SYR<br>stanag: SYR<br>tld: .sy<br>GENC2: SY", "Country": "Syria", "ADM1": "Idlib", "ADM2": "Jisr-Ash-Shugur", "ADM3": "Badama", "ADM4": "Kherbet Eljoz", "Latitude": "35.881", "Longitude": "36.174", "PCODE": "SY070401C4231", "fips": "SY", "iso_alpha2": "SY", "iso_alpha3": "SYR", "stanag": "SYR", "tld": ".sy", "GENC2": "SY" }, "geometry": { "type": "Point", "coordinates": [ 36.174, 35.881 ] } },
{ "type": "Feature", "properties": { "Name": "Khirbat al Jawz IDP Camp", "description": "Country: Syria<br>ADM1: Idlib<br>ADM2: Jisr-Ash-Shugur<br>ADM3: Badama<br>ADM4: Kherbet Eljoz<br>Latitude: 35.896<br>Longitude: 36.178<br>Name: Khirbat al Jawz IDP Camp<br>PCODE: SY070401C4231<br>fips: SY<br>iso_alpha2: SY<br>iso_alpha3: SYR<br>stanag: SYR<br>tld: .sy<br>GENC2: SY", "Country": "Syria", "ADM1": "Idlib", "ADM2": "Jisr-Ash-Shugur", "ADM3": "Badama", "ADM4": "Kherbet Eljoz", "Latitude": "35.896", "Longitude": "36.178", "PCODE": "SY070401C4231", "fips": "SY", "iso_alpha2": "SY", "iso_alpha3": "SYR", "stanag": "SYR", "tld": ".sy", "GENC2": "SY" }, "geometry": { "type": "Point", "coordinates": [ 36.178, 35.896 ] } },
{ "type": "Feature", "properties": { "Name": "Qirmidah West Camp", "description": "Country: Syria<br>ADM1: Idlib<br>ADM2: Jisr-Ash-Shugur<br>ADM3: Jisr-Ash-Shugur<br>ADM4: Dgali<br>Latitude: 35.914<br>Longitude: 36.379<br>Name: Qirmidah West Camp<br>PCODE: SY070400C4214<br>fips: SY<br>iso_alpha2: SY<br>iso_alpha3: SYR<br>stanag: SYR<br>tld: .sy<br>GENC2: SY", "Country": "Syria", "ADM1": "Idlib", "ADM2": "Jisr-Ash-Shugur", "ADM3": "Jisr-Ash-Shugur", "ADM4": "Dgali", "Latitude": "35.914", "Longitude": "36.379", "PCODE": "SY070400C4214", "fips": "SY", "iso_alpha2": "SY", "iso_alpha3": "SYR", "stanag": "SYR", "tld": ".sy", "GENC2": "SY" }, "geometry": { "type": "Point", "coordinates": [ 36.379, 35.914 ] } },
{ "type": "Feature", "properties": { "Name": "Hammam Ash Shaykh Isa IDP Camp", "description": "Country: Syria<br>ADM1: Idlib<br>ADM2: Jisr-Ash-Shugur<br>ADM3: Jisr-Ash-Shugur<br>ADM4: Dgali<br>Latitude: 35.91<br>Longitude: 36.406<br>Name: Hammam Ash Shaykh Isa IDP Camp<br>PCODE: SY070400C4214<br>fips: SY<br>iso_alpha2: SY<br>iso_alpha3: SYR<br>stanag: SYR<br>tld: .sy<br>GENC2: SY", "Country": "Syria", "ADM1": "Idlib", "ADM2": "Jisr-Ash-Shugur", "ADM3": "Jisr-Ash-Shugur", "ADM4": "Dgali", "Latitude": "35.91", "Longitude": "36.406", "PCODE": "SY070400C4214", "fips": "SY", "iso_alpha2": "SY", "iso_alpha3": "SYR", "stanag": "SYR", "tld": ".sy", "GENC2": "SY" }, "geometry": { "type": "Point", "coordinates": [ 36.406, 35.91 ] } },
{ "type": "Feature", "properties": { "Name": "Rudu IDP Camp", "description": "Country: Syria<br>ADM1: Latakia<br>ADM2: Latakia<br>ADM3: Hanadi<br>ADM4: Shir<br>Latitude: 35.541<br>Longitude: 35.85<br>Name: Rudu IDP Camp<br>PCODE: SY060006C3563<br>fips: SY<br>iso_alpha2: SY<br>iso_alpha3: SYR<br>stanag: SYR<br>tld: .sy<br>GENC2: SY", "Country": "Syria", "ADM1": "Latakia", "ADM2": "Latakia", "ADM3": "Hanadi", "ADM4": "Shir", "Latitude": "35.541", "Longitude": "35.85", "PCODE": "SY060006C3563", "fips": "SY", "iso_alpha2": "SY", "iso_alpha3": "SYR", "stanag": "SYR", "tld": ".sy", "GENC2": "SY" }, "geometry": { "type": "Point", "coordinates": [ 35.85, 35.541 ] } },
{ "type": "Feature", "properties": { "Name": "Latakia Aquatic Sports Facility IDP Camp", "description": "Country: Syria<br>ADM1: Latakia<br>ADM2: Latakia<br>ADM3: Latakia<br>ADM4: Burj Elqasab<br>Latitude: 35.56<br>Longitude: 35.749<br>Name: Latakia Aquatic Sports Facility IDP Camp<br>PCODE: SY060000C3474<br>fips: SY<br>iso_alpha2: SY<br>iso_alpha3: SYR<br>stanag: SYR<br>tld: .sy<br>GENC2: SY", "Country": "Syria", "ADM1": "Latakia", "ADM2": "Latakia", "ADM3": "Latakia", "ADM4": "Burj Elqasab", "Latitude": "35.56", "Longitude": "35.749", "PCODE": "SY060000C3474", "fips": "SY", "iso_alpha2": "SY", "iso_alpha3": "SYR", "stanag": "SYR", "tld": ".sy", "GENC2": "SY" }, "geometry": { "type": "Point", "coordinates": [ 35.749, 35.56 ] } },
{ "type": "Feature", "properties": { "Name": "Zaytunjuq IDP Camp", "description": "Country: Syria<br>ADM1: Latakia<br>ADM2: Latakia<br>ADM3: Rebee'a<br>ADM4: Samira - Sallur<br>Latitude: 35.819<br>Longitude: 36.134<br>Name: Zaytunjuq IDP Camp<br>PCODE: SY060002C3501<br>fips: SY<br>iso_alpha2: SY<br>iso_alpha3: SYR<br>stanag: SYR<br>tld: .sy<br>GENC2: SY", "Country": "Syria", "ADM1": "Latakia", "ADM2": "Latakia", "ADM3": "Rebee'a", "ADM4": "Samira - Sallur", "Latitude": "35.819", "Longitude": "36.134", "PCODE": "SY060002C3501", "fips": "SY", "iso_alpha2": "SY", "iso_alpha3": "SYR", "stanag": "SYR", "tld": ".sy", "GENC2": "SY" }, "geometry": { "type": "Point", "coordinates": [ 36.134, 35.819 ] } },
{ "type": "Feature", "properties": { "Name": "Yamadiyah South IDP Camp", "description": "Country: Syria<br>ADM1: Latakia<br>ADM2: Latakia<br>ADM3: Rebee'a<br>ADM4: Samira - Sallur<br>Latitude: 35.825<br>Longitude: 36.134<br>Name: Yamadiyah South IDP Camp<br>PCODE: SY060002C3501<br>fips: SY<br>iso_alpha2: SY<br>iso_alpha3: SYR<br>stanag: SYR<br>tld: .sy<br>GENC2: SY", "Country": "Syria", "ADM1": "Latakia", "ADM2": "Latakia", "ADM3": "Rebee'a", "ADM4": "Samira - Sallur", "Latitude": "35.825", "Longitude": "36.134", "PCODE": "SY060002C3501", "fips": "SY", "iso_alpha2": "SY", "iso_alpha3": "SYR", "stanag": "SYR", "tld": ".sy", "GENC2": "SY" }, "geometry": { "type": "Point", "coordinates": [ 36.134, 35.825 ] } },
{ "type": "Feature", "properties": { "Name": "Yamadiyah IDP Camp", "description": "Country: Syria<br>ADM1: Latakia<br>ADM2: Latakia<br>ADM3: Rebee'a<br>ADM4: Samira - Sallur<br>Latitude: 35.841<br>Longitude: 36.134<br>Name: Yamadiyah IDP Camp<br>PCODE: SY060002C3501<br>fips: SY<br>iso_alpha2: SY<br>iso_alpha3: SYR<br>stanag: SYR<br>tld: .sy<br>GENC2: SY", "Country": "Syria", "ADM1": "Latakia", "ADM2": "Latakia", "ADM3": "Rebee'a", "ADM4": "Samira - Sallur", "Latitude": "35.841", "Longitude": "36.134", "PCODE": "SY060002C3501", "fips": "SY", "iso_alpha2": "SY", "iso_alpha3": "SYR", "stanag": "SYR", "tld": ".sy", "GENC2": "SY" }, "geometry": { "type": "Point", "coordinates": [ 36.134, 35.841 ] } },
{ "type": "Feature", "properties": { "Name": "Qarah Bibar IDP Camp", "description": "Country: Syria<br>ADM1: Latakia<br>ADM2: Latakia<br>ADM3: Rebee'a<br>ADM4: Samira - Sallur<br>Latitude: 35.857<br>Longitude: 36.111<br>Name: Qarah Bibar IDP Camp<br>PCODE: SY060002C3501<br>fips: SY<br>iso_alpha2: SY<br>iso_alpha3: SYR<br>stanag: SYR<br>tld: .sy<br>GENC2: SY", "Country": "Syria", "ADM1": "Latakia", "ADM2": "Latakia", "ADM3": "Rebee'a", "ADM4": "Samira - Sallur", "Latitude": "35.857", "Longitude": "36.111", "PCODE": "SY060002C3501", "fips": "SY", "iso_alpha2": "SY", "iso_alpha3": "SYR", "stanag": "SYR", "tld": ".sy", "GENC2": "SY" }, "geometry": { "type": "Point", "coordinates": [ 36.111, 35.857 ] } },
{ "type": "Feature", "properties": { "Name": "Shirkat as Sahil IDP Camp", "description": "Country: Syria<br>ADM1: Tartus<br>ADM2: Tartus<br>ADM3: Tartus<br>ADM4: Ennabiya<br>Latitude: 34.851<br>Longitude: 35.907<br>Name: Shirkat as Sahil IDP Camp<br>PCODE: SY100000C5238<br>fips: SY<br>iso_alpha2: SY<br>iso_alpha3: SYR<br>stanag: SYR<br>tld: .sy<br>GENC2: SY", "Country": "Syria", "ADM1": "Tartus", "ADM2": "Tartus", "ADM3": "Tartus", "ADM4": "Ennabiya", "Latitude": "34.851", "Longitude": "35.907", "PCODE": "SY100000C5238", "fips": "SY", "iso_alpha2": "SY", "iso_alpha3": "SYR", "stanag": "SYR", "tld": ".sy", "GENC2": "SY" }, "geometry": { "type": "Point", "coordinates": [ 35.907, 34.851 ] } },
{ "type": "Feature", "properties": { "Name": "Hayy ar Radar IDP Camp", "description": "Country: Syria<br>ADM1: Tartus<br>ADM2: Tartus<br>ADM3: Tartus<br>ADM4: Ennabiya<br>Latitude: 34.858<br>Longitude: 35.893<br>Name: Hayy ar Radar IDP Camp<br>PCODE: SY100000C5238<br>fips: SY<br>iso_alpha2: SY<br>iso_alpha3: SYR<br>stanag: SYR<br>tld: .sy<br>GENC2: SY", "Country": "Syria", "ADM1": "Tartus", "ADM2": "Tartus", "ADM3": "Tartus", "ADM4": "Ennabiya", "Latitude": "34.858", "Longitude": "35.893", "PCODE": "SY100000C5238", "fips": "SY", "iso_alpha2": "SY", "iso_alpha3": "SYR", "stanag": "SYR", "tld": ".sy", "GENC2": "SY" }, "geometry": { "type": "Point", "coordinates": [ 35.893, 34.858 ] } },
{ "type": "Feature", "properties": { "Name": "Al Hishah IDP Camp", "description": "Country: Syria<br>ADM1: Tartus<br>ADM2: Tartus<br>ADM3: Tartus<br>ADM4: Hisheh<br>Latitude: 34.787<br>Longitude: 35.926<br>Name: Al Hishah IDP Camp<br>PCODE: SY100000C5243<br>fips: SY<br>iso_alpha2: SY<br>iso_alpha3: SYR<br>stanag: SYR<br>tld: .sy<br>GENC2: SY", "Country": "Syria", "ADM1": "Tartus", "ADM2": "Tartus", "ADM3": "Tartus", "ADM4": "Hisheh", "Latitude": "34.787", "Longitude": "35.926", "PCODE": "SY100000C5243", "fips": "SY", "iso_alpha2": "SY", "iso_alpha3": "SYR", "stanag": "SYR", "tld": ".sy", "GENC2": "SY" }, "geometry": { "type": "Point", "coordinates": [ 35.926, 34.787 ] } },
{ "type": "Feature", "properties": { "Name": "Tartus IDP Camp", "description": "Country: Syria<br>ADM1: Tartus<br>ADM2: Tartus<br>ADM3: Tartus<br>ADM4: Tartus<br>Latitude: 34.891<br>Longitude: 35.889<br>Name: Tartus IDP Camp<br>PCODE: SY100000C5221<br>fips: SY<br>iso_alpha2: SY<br>iso_alpha3: SYR<br>stanag: SYR<br>tld: .sy<br>GENC2: SY", "Country": "Syria", "ADM1": "Tartus", "ADM2": "Tartus", "ADM3": "Tartus", "ADM4": "Tartus", "Latitude": "34.891", "Longitude": "35.889", "PCODE": "SY100000C5221", "fips": "SY", "iso_alpha2": "SY", "iso_alpha3": "SYR", "stanag": "SYR", "tld": ".sy", "GENC2": "SY" }, "geometry": { "type": "Point", "coordinates": [ 35.889, 34.891 ] } }
]
}
